simulation/qsim/UART.msim.vcd
$comment
	File created using the following command:
		vcd file UART.msim.vcd -direction
$end
$date
	Wed Jan 03 09:52:45 2024
$end
$version
	ModelSim Version 10.5b
$end
$timescale
	1ps
$end

$scope module UART_vlg_vec_tst $end
$var reg 1 ! ckht $end
$var reg 8 " fifo_tx_data_in1 [7:0] $end
$var reg 1 # rst $end
$var reg 1 $ uart_rx $end
$var wire 1 % checkempty $end
$var wire 1 & checkreadfromrx $end
$var wire 1 ' checkreadtx $end
$var wire 1 ( datafromread [7] $end
$var wire 1 ) datafromread [6] $end
$var wire 1 * datafromread [5] $end
$var wire 1 + datafromread [4] $end
$var wire 1 , datafromread [3] $end
$var wire 1 - datafromread [2] $end
$var wire 1 . datafromread [1] $end
$var wire 1 / datafromread [0] $end
$var wire 1 0 fifo_rx_data_out [7] $end
$var wire 1 1 fifo_rx_data_out [6] $end
$var wire 1 2 fifo_rx_data_out [5] $end
$var wire 1 3 fifo_rx_data_out [4] $end
$var wire 1 4 fifo_rx_data_out [3] $end
$var wire 1 5 fifo_rx_data_out [2] $end
$var wire 1 6 fifo_rx_data_out [1] $end
$var wire 1 7 fifo_rx_data_out [0] $end
$var wire 1 8 fifo_rx_empty $end
$var wire 1 9 fifo_tx_data_out [7] $end
$var wire 1 : fifo_tx_data_out [6] $end
$var wire 1 ; fifo_tx_data_out [5] $end
$var wire 1 < fifo_tx_data_out [4] $end
$var wire 1 = fifo_tx_data_out [3] $end
$var wire 1 > fifo_tx_data_out [2] $end
$var wire 1 ? fifo_tx_data_out [1] $end
$var wire 1 @ fifo_tx_data_out [0] $end
$var wire 1 A fifo_tx_full $end
$var wire 1 B uart_to_fifo [7] $end
$var wire 1 C uart_to_fifo [6] $end
$var wire 1 D uart_to_fifo [5] $end
$var wire 1 E uart_to_fifo [4] $end
$var wire 1 F uart_to_fifo [3] $end
$var wire 1 G uart_to_fifo [2] $end
$var wire 1 H uart_to_fifo [1] $end
$var wire 1 I uart_to_fifo [0] $end
$var wire 1 J uart_tx $end

$scope module i1 $end
$var wire 1 K gnd $end
$var wire 1 L vcc $end
$var wire 1 M unknown $end
$var tri1 1 N devclrn $end
$var tri1 1 O devpor $end
$var tri1 1 P devoe $end
$var wire 1 Q fifo_tx_data_in1[0]~input_o $end
$var wire 1 R fifo_tx_data_in1[1]~input_o $end
$var wire 1 S fifo_tx_data_in1[2]~input_o $end
$var wire 1 T fifo_tx_data_in1[3]~input_o $end
$var wire 1 U fifo_tx_data_in1[4]~input_o $end
$var wire 1 V fifo_tx_data_in1[5]~input_o $end
$var wire 1 W fifo_tx_data_in1[6]~input_o $end
$var wire 1 X fifo_tx_data_in1[7]~input_o $end
$var wire 1 Y ~QUARTUS_CREATED_GND~I_combout $end
$var wire 1 Z ckht~input_o $end
$var wire 1 [ ckht~inputCLKENA0_outclk $end
$var wire 1 \ FIFO_TX_UNIT|wr_ptr_r[0]~1_combout $end
$var wire 1 ] rst~input_o $end
$var wire 1 ^ FIFO_RX_UNIT|rd_ptr_r[0]~0_combout $end
$var wire 1 _ FIFO_RX_UNIT|Add1~0_combout $end
$var wire 1 ` FIFO_RX_UNIT|rd_ptr_r[1]~DUPLICATE_q $end
$var wire 1 a FIFO_RX_UNIT|rd_ptr_r[0]~DUPLICATE_q $end
$var wire 1 b FIFO_RX_UNIT|wr_ptr_r[0]~1_combout $end
$var wire 1 c uart_rx~input_o $end
$var wire 1 d UART_RX_UNIT|s_r[0]~4_combout $end
$var wire 1 e UART_RX_UNIT|state_r.idle~q $end
$var wire 1 f UART_RX_UNIT|s_r[0]~3_combout $end
$var wire 1 g UART_RX_UNIT|s_r[1]~2_combout $end
$var wire 1 h UART_RX_UNIT|Equal2~0_combout $end
$var wire 1 i UART_RX_UNIT|s_r[3]~1_combout $end
$var wire 1 j UART_RX_UNIT|state_r.data~q $end
$var wire 1 k UART_RX_UNIT|b_r[0]~0_combout $end
$var wire 1 l UART_RX_UNIT|Selector0~1_combout $end
$var wire 1 m UART_RX_UNIT|n_r[0]~2_combout $end
$var wire 1 n UART_RX_UNIT|n_r[2]~0_combout $end
$var wire 1 o UART_RX_UNIT|n_r[2]~DUPLICATE_q $end
$var wire 1 p UART_RX_UNIT|n_r[1]~1_combout $end
$var wire 1 q UART_RX_UNIT|Equal1~0_combout $end
$var wire 1 r UART_RX_UNIT|state_r.stop~1_combout $end
$var wire 1 s UART_RX_UNIT|state_r.stop~q $end
$var wire 1 t UART_RX_UNIT|state_r.stop~0_combout $end
$var wire 1 u UART_RX_UNIT|Selector1~0_combout $end
$var wire 1 v UART_RX_UNIT|state_r.start~q $end
$var wire 1 w UART_RX_UNIT|Selector2~0_combout $end
$var wire 1 x UART_RX_UNIT|state_r.data~DUPLICATE_q $end
$var wire 1 y UART_RX_UNIT|s_r[1]~0_combout $end
$var wire 1 z UART_RX_UNIT|s_r[2]~5_combout $end
$var wire 1 { UART_RX_UNIT|Selector0~0_combout $end
$var wire 1 | FIFO_RX_UNIT|full_r~q $end
$var wire 1 } FIFO_RX_UNIT|full_r~0_combout $end
$var wire 1 ~ FIFO_RX_UNIT|full_r~1_combout $end
$var wire 1 !! FIFO_RX_UNIT|full_r~DUPLICATE_q $end
$var wire 1 "! FIFO_RX_UNIT|wr_ptr_r[1]~0_combout $end
$var wire 1 #! FIFO_RX_UNIT|Add0~0_combout $end
$var wire 1 $! FIFO_RX_UNIT|Mux4~0_combout $end
$var wire 1 %! FIFO_RX_UNIT|Mux4~1_combout $end
$var wire 1 &! FIFO_RX_UNIT|empty_r~q $end
$var wire 1 '! write_to_fifo|counter~1_combout $end
$var wire 1 (! write_to_fifo|current_state.S3~q $end
$var wire 1 )! write_to_fifo|Selector0~0_combout $end
$var wire 1 *! write_to_fifo|current_state.S1~q $end
$var wire 1 +! write_to_fifo|Selector1~0_combout $end
$var wire 1 ,! write_to_fifo|current_state.S2~q $end
$var wire 1 -! write_to_fifo|counter~0_combout $end
$var wire 1 .! write_to_fifo|next_state.S3~0_combout $end
$var wire 1 /! write_to_fifo|current_state.S3~DUPLICATE_q $end
$var wire 1 0! FIFO_TX_UNIT|rd_ptr_r[0]~1_combout $end
$var wire 1 1! FIFO_TX_UNIT|rd_ptr_r[1]~0_combout $end
$var wire 1 2! FIFO_TX_UNIT|Add1~0_combout $end
$var wire 1 3! FIFO_TX_UNIT|rd_ptr_r[0]~DUPLICATE_q $end
$var wire 1 4! FIFO_TX_UNIT|Add0~0_combout $end
$var wire 1 5! FIFO_TX_UNIT|Mux4~0_combout $end
$var wire 1 6! FIFO_TX_UNIT|Mux4~1_combout $end
$var wire 1 7! UART_TX_UNIT|state_r.idle~q $end
$var wire 1 8! UART_TX_UNIT|s_r[0]~3_combout $end
$var wire 1 9! UART_TX_UNIT|Equal1~1_combout $end
$var wire 1 :! UART_TX_UNIT|Selector2~2_combout $end
$var wire 1 ;! UART_TX_UNIT|state_r.start~q $end
$var wire 1 <! UART_TX_UNIT|state_r.data~q $end
$var wire 1 =! UART_TX_UNIT|state_r.stop~DUPLICATE_q $end
$var wire 1 >! UART_TX_UNIT|Selector3~0_combout $end
$var wire 1 ?! UART_TX_UNIT|state_r.data~DUPLICATE_q $end
$var wire 1 @! UART_TX_UNIT|n_r[0]~2_combout $end
$var wire 1 A! UART_TX_UNIT|n_r[1]~1_combout $end
$var wire 1 B! UART_TX_UNIT|n_r[1]~DUPLICATE_q $end
$var wire 1 C! UART_TX_UNIT|n_r[2]~0_combout $end
$var wire 1 D! UART_TX_UNIT|state_n~4_combout $end
$var wire 1 E! UART_TX_UNIT|Selector4~0_combout $end
$var wire 1 F! UART_TX_UNIT|state_r.stop~q $end
$var wire 1 G! FIFO_TX_UNIT|Mux5~0_combout $end
$var wire 1 H! FIFO_TX_UNIT|empty_r~q $end
$var wire 1 I! UART_TX_UNIT|s_r[3]~4_combout $end
$var wire 1 J! UART_TX_UNIT|state_r.idle~DUPLICATE_q $end
$var wire 1 K! FIFO_TX_UNIT|empty_r~DUPLICATE_q $end
$var wire 1 L! UART_TX_UNIT|Equal1~0_combout $end
$var wire 1 M! UART_TX_UNIT|s_r[3]~1_combout $end
$var wire 1 N! UART_TX_UNIT|s_r[3]~0_combout $end
$var wire 1 O! UART_TX_UNIT|s_r[1]~2_combout $end
$var wire 1 P! UART_TX_UNIT|s_r[1]~DUPLICATE_q $end
$var wire 1 Q! UART_TX_UNIT|s_r[0]~DUPLICATE_q $end
$var wire 1 R! UART_TX_UNIT|s_r[2]~5_combout $end
$var wire 1 S! UART_TX_UNIT|tx_done_tick~0_combout $end
$var wire 1 T! FIFO_TX_UNIT|wr_ptr_r[0]~0_combout $end
$var wire 1 U! FIFO_TX_UNIT|Mux5~1_combout $end
$var wire 1 V! FIFO_TX_UNIT|full_r~DUPLICATE_q $end
$var wire 1 W! FIFO_TX_UNIT|array_r.waddr_a[1]~1_combout $end
$var wire 1 X! FIFO_TX_UNIT|array_r.waddr_a[1]~3_combout $end
$var wire 1 Y! FIFO_TX_UNIT|array_r.waddr_a[1]~_emulated_q $end
$var wire 1 Z! FIFO_TX_UNIT|array_r.waddr_a[1]~2_combout $end
$var wire 1 [! FIFO_TX_UNIT|full_r~q $end
$var wire 1 \! FIFO_TX_UNIT|wr_en~combout $end
$var wire 1 ]! FIFO_TX_UNIT|array_r.we_a~feeder_combout $end
$var wire 1 ^! FIFO_TX_UNIT|array_r.we_a~q $end
$var wire 1 _! FIFO_TX_UNIT|array_r.waddr_a[0]~5_combout $end
$var wire 1 `! FIFO_TX_UNIT|array_r.waddr_a[0]~7_combout $end
$var wire 1 a! FIFO_TX_UNIT|array_r.waddr_a[0]~_emulated_q $end
$var wire 1 b! FIFO_TX_UNIT|array_r.waddr_a[0]~6_combout $end
$var wire 1 c! rtl~1_combout $end
$var wire 1 d! FIFO_RX_UNIT|array_r.waddr_a[1]~1_combout $end
$var wire 1 e! FIFO_RX_UNIT|array_r.waddr_a[1]~3_combout $end
$var wire 1 f! FIFO_RX_UNIT|array_r.waddr_a[1]~_emulated_q $end
$var wire 1 g! FIFO_RX_UNIT|array_r.waddr_a[1]~2_combout $end
$var wire 1 h! FIFO_RX_UNIT|wr_en~combout $end
$var wire 1 i! FIFO_RX_UNIT|array_r.we_a~q $end
$var wire 1 j! FIFO_RX_UNIT|array_r.waddr_a[0]~5_combout $end
$var wire 1 k! FIFO_RX_UNIT|array_r.waddr_a[0]~7_combout $end
$var wire 1 l! FIFO_RX_UNIT|array_r.waddr_a[0]~_emulated_q $end
$var wire 1 m! FIFO_RX_UNIT|array_r.waddr_a[0]~6_combout $end
$var wire 1 n! rtl~4_combout $end
$var wire 1 o! UART_RX_UNIT|b_r[5]~feeder_combout $end
$var wire 1 p! FIFO_RX_UNIT|array_r~0_combout $end
$var wire 1 q! rtl~5_combout $end
$var wire 1 r! FIFO_RX_UNIT|array_r~8_combout $end
$var wire 1 s! rtl~7_combout $end
$var wire 1 t! FIFO_RX_UNIT|array_r~24_combout $end
$var wire 1 u! rtl~6_combout $end
$var wire 1 v! FIFO_RX_UNIT|array_r~16_combout $end
$var wire 1 w! FIFO_RX_UNIT|array_r~32_combout $end
$var wire 1 x! FIFO_TX_UNIT|array_r~8_combout $end
$var wire 1 y! rtl~0_combout $end
$var wire 1 z! FIFO_TX_UNIT|array_r~0_combout $end
$var wire 1 {! rtl~2_combout $end
$var wire 1 |! FIFO_TX_UNIT|array_r~16_combout $end
$var wire 1 }! rtl~3_combout $end
$var wire 1 ~! FIFO_TX_UNIT|array_r~24_combout $end
$var wire 1 !" FIFO_TX_UNIT|array_r~32_combout $end
$var wire 1 "" FIFO_RX_UNIT|array_r~25_combout $end
$var wire 1 #" FIFO_RX_UNIT|array_r~9_combout $end
$var wire 1 $" FIFO_RX_UNIT|array_r~17_combout $end
$var wire 1 %" FIFO_RX_UNIT|array_r~1_combout $end
$var wire 1 &" FIFO_RX_UNIT|array_r~33_combout $end
$var wire 1 '" FIFO_TX_UNIT|array_r~9_combout $end
$var wire 1 (" FIFO_TX_UNIT|array_r~1_combout $end
$var wire 1 )" FIFO_TX_UNIT|array_r~17_combout $end
$var wire 1 *" FIFO_TX_UNIT|array_r~25_combout $end
$var wire 1 +" FIFO_TX_UNIT|array_r~33_combout $end
$var wire 1 ," FIFO_RX_UNIT|array_r~18_combout $end
$var wire 1 -" FIFO_RX_UNIT|array_r~26_combout $end
$var wire 1 ." FIFO_RX_UNIT|array_r~10_combout $end
$var wire 1 /" FIFO_RX_UNIT|array_r~2_combout $end
$var wire 1 0" FIFO_RX_UNIT|array_r~34_combout $end
$var wire 1 1" FIFO_TX_UNIT|array_r~10_combout $end
$var wire 1 2" FIFO_TX_UNIT|array_r~2_combout $end
$var wire 1 3" FIFO_TX_UNIT|array_r~18_combout $end
$var wire 1 4" FIFO_TX_UNIT|array_r~26_combout $end
$var wire 1 5" FIFO_TX_UNIT|array_r~34_combout $end
$var wire 1 6" FIFO_RX_UNIT|array_r~11_combout $end
$var wire 1 7" FIFO_RX_UNIT|array_r~27_combout $end
$var wire 1 8" FIFO_RX_UNIT|array_r~19_combout $end
$var wire 1 9" FIFO_RX_UNIT|array_r~3_combout $end
$var wire 1 :" FIFO_RX_UNIT|array_r~35_combout $end
$var wire 1 ;" FIFO_TX_UNIT|array_r~11_combout $end
$var wire 1 <" FIFO_TX_UNIT|array_r~3_combout $end
$var wire 1 =" FIFO_TX_UNIT|array_r~19_combout $end
$var wire 1 >" FIFO_TX_UNIT|array_r~27_combout $end
$var wire 1 ?" FIFO_TX_UNIT|array_r~35_combout $end
$var wire 1 @" FIFO_RX_UNIT|array_r~12_combout $end
$var wire 1 A" FIFO_RX_UNIT|array_r~28_combout $end
$var wire 1 B" FIFO_RX_UNIT|array_r~20_combout $end
$var wire 1 C" FIFO_RX_UNIT|array_r~4_combout $end
$var wire 1 D" FIFO_RX_UNIT|array_r~36_combout $end
$var wire 1 E" FIFO_TX_UNIT|array_r~12_combout $end
$var wire 1 F" FIFO_TX_UNIT|array_r~4_combout $end
$var wire 1 G" FIFO_TX_UNIT|array_r~20_combout $end
$var wire 1 H" FIFO_TX_UNIT|array_r~28_combout $end
$var wire 1 I" FIFO_TX_UNIT|array_r~36_combout $end
$var wire 1 J" FIFO_RX_UNIT|array_r~21_combout $end
$var wire 1 K" FIFO_RX_UNIT|array_r~29_combout $end
$var wire 1 L" FIFO_RX_UNIT|array_r~13_combout $end
$var wire 1 M" FIFO_RX_UNIT|array_r~5_combout $end
$var wire 1 N" FIFO_RX_UNIT|array_r~37_combout $end
$var wire 1 O" FIFO_TX_UNIT|array_r~13_combout $end
$var wire 1 P" FIFO_TX_UNIT|array_r~5_combout $end
$var wire 1 Q" FIFO_TX_UNIT|array_r~21_combout $end
$var wire 1 R" FIFO_TX_UNIT|array_r~29_combout $end
$var wire 1 S" FIFO_TX_UNIT|array_r~37_combout $end
$var wire 1 T" FIFO_RX_UNIT|array_r~14_combout $end
$var wire 1 U" FIFO_RX_UNIT|array_r~6_combout $end
$var wire 1 V" FIFO_RX_UNIT|array_r~22_combout $end
$var wire 1 W" FIFO_RX_UNIT|array_r~30_combout $end
$var wire 1 X" FIFO_RX_UNIT|array_r~38_combout $end
$var wire 1 Y" FIFO_TX_UNIT|array_r~14_combout $end
$var wire 1 Z" FIFO_TX_UNIT|array_r~6_combout $end
$var wire 1 [" FIFO_TX_UNIT|array_r~30_combout $end
$var wire 1 \" FIFO_TX_UNIT|array_r~22_combout $end
$var wire 1 ]" FIFO_TX_UNIT|array_r~38_combout $end
$var wire 1 ^" FIFO_RX_UNIT|array_r~7_combout $end
$var wire 1 _" FIFO_RX_UNIT|array_r~15_combout $end
$var wire 1 `" FIFO_RX_UNIT|array_r~23_combout $end
$var wire 1 a" FIFO_RX_UNIT|array_r~31_combout $end
$var wire 1 b" FIFO_RX_UNIT|array_r~39_combout $end
$var wire 1 c" FIFO_TX_UNIT|array_r~7_combout $end
$var wire 1 d" FIFO_TX_UNIT|array_r~15_combout $end
$var wire 1 e" FIFO_TX_UNIT|array_r~23_combout $end
$var wire 1 f" FIFO_TX_UNIT|array_r~31_combout $end
$var wire 1 g" FIFO_TX_UNIT|array_r~39_combout $end
$var wire 1 h" UART_TX_UNIT|b_r[7]~1_combout $end
$var wire 1 i" UART_TX_UNIT|Selector10~0_combout $end
$var wire 1 j" UART_TX_UNIT|b_r[6]~0_combout $end
$var wire 1 k" UART_TX_UNIT|Selector11~0_combout $end
$var wire 1 l" UART_TX_UNIT|Selector12~0_combout $end
$var wire 1 m" UART_TX_UNIT|Selector13~0_combout $end
$var wire 1 n" UART_TX_UNIT|Selector14~0_combout $end
$var wire 1 o" UART_TX_UNIT|Selector15~0_combout $end
$var wire 1 p" UART_TX_UNIT|Selector16~0_combout $end
$var wire 1 q" UART_TX_UNIT|Selector0~0_combout $end
$var wire 1 r" UART_TX_UNIT|tx_r~q $end
$var wire 1 s" UART_RX_UNIT|b_r[3]~DUPLICATE_q $end
$var wire 1 t" FIFO_TX_UNIT|rd_ptr_r [1] $end
$var wire 1 u" FIFO_TX_UNIT|rd_ptr_r [0] $end
$var wire 1 v" UART_TX_UNIT|s_r [3] $end
$var wire 1 w" UART_TX_UNIT|s_r [2] $end
$var wire 1 x" UART_TX_UNIT|s_r [1] $end
$var wire 1 y" UART_TX_UNIT|s_r [0] $end
$var wire 1 z" UART_TX_UNIT|n_r [2] $end
$var wire 1 {" UART_TX_UNIT|n_r [1] $end
$var wire 1 |" UART_TX_UNIT|n_r [0] $end
$var wire 1 }" UART_RX_UNIT|b_r [7] $end
$var wire 1 ~" UART_RX_UNIT|b_r [6] $end
$var wire 1 !# UART_RX_UNIT|b_r [5] $end
$var wire 1 "# UART_RX_UNIT|b_r [4] $end
$var wire 1 ## UART_RX_UNIT|b_r [3] $end
$var wire 1 $# UART_RX_UNIT|b_r [2] $end
$var wire 1 %# UART_RX_UNIT|b_r [1] $end
$var wire 1 &# UART_RX_UNIT|b_r [0] $end
$var wire 1 '# FIFO_RX_UNIT|rd_ptr_r [1] $end
$var wire 1 (# FIFO_RX_UNIT|rd_ptr_r [0] $end
$var wire 1 )# READ_FIFO_RX|data_rx_r [7] $end
$var wire 1 *# READ_FIFO_RX|data_rx_r [6] $end
$var wire 1 +# READ_FIFO_RX|data_rx_r [5] $end
$var wire 1 ,# READ_FIFO_RX|data_rx_r [4] $end
$var wire 1 -# READ_FIFO_RX|data_rx_r [3] $end
$var wire 1 .# READ_FIFO_RX|data_rx_r [2] $end
$var wire 1 /# READ_FIFO_RX|data_rx_r [1] $end
$var wire 1 0# READ_FIFO_RX|data_rx_r [0] $end
$var wire 1 1# UART_TX_UNIT|b_r [7] $end
$var wire 1 2# UART_TX_UNIT|b_r [6] $end
$var wire 1 3# UART_TX_UNIT|b_r [5] $end
$var wire 1 4# UART_TX_UNIT|b_r [4] $end
$var wire 1 5# UART_TX_UNIT|b_r [3] $end
$var wire 1 6# UART_TX_UNIT|b_r [2] $end
$var wire 1 7# UART_TX_UNIT|b_r [1] $end
$var wire 1 8# UART_TX_UNIT|b_r [0] $end
$var wire 1 9# FIFO_TX_UNIT|wr_ptr_r [1] $end
$var wire 1 :# FIFO_TX_UNIT|wr_ptr_r [0] $end
$var wire 1 ;# FIFO_TX_UNIT|array_r.data_a [7] $end
$var wire 1 <# FIFO_TX_UNIT|array_r.data_a [6] $end
$var wire 1 =# FIFO_TX_UNIT|array_r.data_a [5] $end
$var wire 1 ># FIFO_TX_UNIT|array_r.data_a [4] $end
$var wire 1 ?# FIFO_TX_UNIT|array_r.data_a [3] $end
$var wire 1 @# FIFO_TX_UNIT|array_r.data_a [2] $end
$var wire 1 A# FIFO_TX_UNIT|array_r.data_a [1] $end
$var wire 1 B# FIFO_TX_UNIT|array_r.data_a [0] $end
$var wire 1 C# FIFO_RX_UNIT|array_r.data_a [7] $end
$var wire 1 D# FIFO_RX_UNIT|array_r.data_a [6] $end
$var wire 1 E# FIFO_RX_UNIT|array_r.data_a [5] $end
$var wire 1 F# FIFO_RX_UNIT|array_r.data_a [4] $end
$var wire 1 G# FIFO_RX_UNIT|array_r.data_a [3] $end
$var wire 1 H# FIFO_RX_UNIT|array_r.data_a [2] $end
$var wire 1 I# FIFO_RX_UNIT|array_r.data_a [1] $end
$var wire 1 J# FIFO_RX_UNIT|array_r.data_a [0] $end
$var wire 1 K# UART_RX_UNIT|s_r [3] $end
$var wire 1 L# UART_RX_UNIT|s_r [2] $end
$var wire 1 M# UART_RX_UNIT|s_r [1] $end
$var wire 1 N# UART_RX_UNIT|s_r [0] $end
$var wire 1 O# FIFO_RX_UNIT|wr_ptr_r [1] $end
$var wire 1 P# FIFO_RX_UNIT|wr_ptr_r [0] $end
$var wire 1 Q# write_to_fifo|counter [1] $end
$var wire 1 R# write_to_fifo|counter [0] $end
$var wire 1 S# UART_RX_UNIT|n_r [2] $end
$var wire 1 T# UART_RX_UNIT|n_r [1] $end
$var wire 1 U# UART_RX_UNIT|n_r [0] $end
$upscope $end
$upscope $end
$enddefinitions $end
#0
$dumpvars
0!
b0 "
0#
1$
1%
0&
0'
0/
0.
0-
0,
0+
0*
0)
0(
07
06
05
04
03
02
01
00
18
0@
0?
0>
0=
0<
0;
0:
09
0A
0I
0H
0G
0F
0E
0D
0C
0B
1J
0K
1L
xM
1N
1O
1P
0Q
0R
0S
0T
0U
0V
0W
0X
0Y
0Z
0[
1\
0]
1^
0_
0`
0a
1b
1c
0d
0e
0f
0g
0h
0i
0j
0k
0l
0m
0n
0o
0p
0q
0r
0s
0t
0u
0v
0w
0x
1y
0z
0{
0|
0}
0~
0!!
0"!
0#!
0$!
0%!
0&!
0'!
0(!
0)!
0*!
0+!
0,!
0-!
0.!
0/!
10!
01!
02!
03!
04!
05!
06!
07!
08!
09!
0:!
0;!
0<!
0=!
0>!
0?!
0@!
0A!
0B!
0C!
0D!
0E!
0F!
0G!
0H!
0I!
0J!
0K!
0L!
0M!
0N!
0O!
0P!
0Q!
0R!
0S!
0T!
0U!
0V!
0W!
0X!
0Y!
0Z!
0[!
1\!
1]!
0^!
0_!
0`!
0a!
0b!
0c!
0d!
0e!
0f!
0g!
1h!
0i!
0j!
0k!
0l!
0m!
0n!
0o!
0p!
0q!
0r!
0s!
0t!
0u!
0v!
0w!
0x!
0y!
0z!
0{!
0|!
0}!
0~!
0!"
0""
0#"
0$"
0%"
0&"
0'"
0("
0)"
0*"
0+"
0,"
0-"
0."
0/"
00"
01"
02"
03"
04"
05"
06"
07"
08"
09"
0:"
0;"
0<"
0="
0>"
0?"
0@"
0A"
0B"
0C"
0D"
0E"
0F"
0G"
0H"
0I"
0J"
0K"
0L"
0M"
0N"
0O"
0P"
0Q"
0R"
0S"
0T"
0U"
0V"
0W"
0X"
0Y"
0Z"
0["
0\"
0]"
0^"
0_"
0`"
0a"
0b"
0c"
0d"
0e"
0f"
0g"
0h"
0i"
0j"
0k"
0l"
0m"
0n"
0o"
0p"
0q"
0r"
0s"
0u"
0t"
0y"
0x"
0w"
0v"
0|"
0{"
0z"
0&#
0%#
0$#
0##
0"#
0!#
0~"
0}"
0(#
0'#
00#
0/#
0.#
0-#
0,#
0+#
0*#
0)#
08#
07#
06#
05#
04#
03#
02#
01#
0:#
09#
0B#
0A#
0@#
0?#
0>#
0=#
0<#
0;#
0J#
0I#
0H#
0G#
0F#
0E#
0D#
0C#
0N#
0M#
0L#
0K#
0P#
0O#
0R#
0Q#
0U#
0T#
0S#
$end
#500
1!
1Z
1[
1i!
1^!
1y!
1n!
#1000
0!
0Z
0[
#1500
1!
1Z
1[
#2000
0!
0Z
0[
#2500
1!
1Z
1[
#3000
0!
0Z
0[
#3500
1!
1Z
1[
#4000
0!
0Z
0[
#4500
1!
1Z
1[
#5000
0!
0Z
0[
#5500
1!
1Z
1[
#6000
0!
0Z
0[
#6500
1!
1Z
1[
#7000
0!
0Z
0[
#7500
1!
1Z
1[
#8000
0!
0Z
0[
#8500
1!
1Z
1[
#9000
0!
0Z
0[
#9500
1!
1Z
1[
#10000
0!
0Z
0[
#10500
1!
1Z
1[
#11000
0!
0Z
0[
#11500
1!
1Z
1[
#12000
0!
0Z
0[
#12500
1!
1Z
1[
#13000
0!
0Z
0[
#13500
1!
1Z
1[
#14000
0!
0Z
0[
#14500
1!
1Z
1[
#15000
0!
0Z
0[
#15500
1!
1Z
1[
#16000
0!
0Z
0[
#16500
1!
1Z
1[
#17000
0!
0Z
0[
#17500
1!
1Z
1[
#18000
0!
0Z
0[
#18500
1!
1Z
1[
#19000
0!
0Z
0[
#19500
1!
1Z
1[
#20000
0!
0Z
0[
#20500
1!
1Z
1[
#21000
0!
0Z
0[
#21500
1!
1Z
1[
#22000
0!
0Z
0[
#22500
1!
1Z
1[
#23000
0!
0Z
0[
#23500
1!
1Z
1[
#24000
0!
0Z
0[
#24500
1!
1Z
1[
#25000
0!
0Z
0[
#25500
1!
1Z
1[
#26000
0!
0Z
0[
#26500
1!
1Z
1[
#27000
0!
0Z
0[
#27500
1!
1Z
1[
#28000
0!
0Z
0[
#28500
1!
1Z
1[
#29000
0!
0Z
0[
#29500
1!
1Z
1[
#30000
0!
0Z
0[
#30500
1!
1Z
1[
#31000
0!
0Z
0[
#31500
1!
1Z
1[
#32000
0!
0Z
0[
#32500
1!
1Z
1[
#33000
0!
0Z
0[
#33500
1!
1Z
1[
#34000
0!
0Z
0[
#34500
1!
1Z
1[
#35000
0!
0Z
0[
#35500
1!
1Z
1[
#36000
0!
0Z
0[
#36500
1!
1Z
1[
#37000
0!
0Z
0[
#37500
1!
1Z
1[
#38000
0!
0Z
0[
#38500
1!
1Z
1[
#39000
0!
0Z
0[
#39500
1!
1Z
1[
#40000
0!
0Z
0[
#40500
1!
1Z
1[
#41000
0!
0Z
0[
#41500
1!
1Z
1[
#42000
0!
0Z
0[
#42500
1!
1Z
1[
#43000
0!
0Z
0[
#43500
1!
1Z
1[
#44000
0!
0Z
0[
#44500
1!
1Z
1[
#45000
0!
0Z
0[
#45500
1!
1Z
1[
#46000
0!
0Z
0[
#46500
1!
1Z
1[
#47000
0!
0Z
0[
#47500
1!
1Z
1[
#48000
0!
0Z
0[
#48500
1!
1Z
1[
#49000
0!
0Z
0[
#49500
1!
1Z
1[
#50000
0$
0!
0c
0Z
0[
1u
1d
#50500
1!
1Z
1[
1v
1e
1f
#51000
0!
0Z
0[
#51500
1!
1Z
1[
1N#
1g
0f
#52000
0!
0Z
0[
#52500
1!
1Z
1[
1M#
0N#
1f
#53000
0!
0Z
0[
#53500
1!
1Z
1[
1N#
1z
0g
0f
#54000
0!
0Z
0[
#54500
1!
1Z
1[
1L#
0M#
0N#
1f
#55000
0!
0Z
0[
#55500
1!
1Z
1[
1N#
1g
0f
#56000
0!
0Z
0[
#56500
1!
1Z
1[
1M#
0N#
1f
#57000
0!
0Z
0[
#57500
1!
1Z
1[
1N#
0y
1t
1l
1h
0z
0g
0f
1w
0u
#58000
0!
0Z
0[
#58500
1!
1Z
1[
0L#
1x
0v
1j
0M#
0N#
1y
0t
0l
0h
1f
1m
0m
#59000
0!
0Z
0[
#59500
1!
1Z
1[
1N#
1g
0f
#60000
0!
0Z
0[
#60500
1!
1Z
1[
1M#
0N#
1f
#61000
0!
0Z
0[
#61500
1!
1Z
1[
1N#
1z
0g
0f
#62000
0!
0Z
0[
#62500
1!
1Z
1[
1L#
0M#
0N#
1f
#63000
0!
0Z
0[
#63500
1!
1Z
1[
1N#
1g
0f
#64000
0!
0Z
0[
#64500
1!
1Z
1[
1M#
0N#
1f
#65000
0!
0Z
0[
#65500
1!
1Z
1[
1N#
1h
0z
0g
0f
1i
#66000
0!
0Z
0[
#66500
1!
1Z
1[
0L#
1K#
0M#
0N#
0h
1f
0i
1i
#67000
0!
0Z
0[
#67500
1!
1Z
1[
1N#
1g
0f
#68000
0!
0Z
0[
#68500
1!
1Z
1[
1M#
0N#
1f
#69000
0!
0Z
0[
#69500
1!
1Z
1[
1N#
1z
0g
0f
#70000
0!
0Z
0[
#70500
1!
1Z
1[
1L#
0M#
0N#
1f
#71000
0!
0Z
0[
#71500
1!
1Z
1[
1N#
1g
0f
#72000
0!
0Z
0[
#72500
1!
1Z
1[
1M#
0N#
1f
#73000
0!
0Z
0[
#73500
1!
1Z
1[
1N#
0y
1k
1h
0z
0g
0f
0i
1m
#74000
0!
0Z
0[
#74500
1!
1Z
1[
0L#
1U#
0K#
0M#
0N#
1y
0k
0h
1f
1p
0m
0p
1m
#75000
0!
0Z
0[
#75500
1!
1Z
1[
1N#
1g
0f
#76000
0!
0Z
0[
#76500
1!
1Z
1[
1M#
0N#
1f
#77000
0!
0Z
0[
#77500
1!
1Z
1[
1N#
1z
0g
0f
#78000
0!
0Z
0[
#78500
1!
1Z
1[
1L#
0M#
0N#
1f
#79000
0!
0Z
0[
#79500
1!
1Z
1[
1N#
1g
0f
#80000
0!
0Z
0[
#80500
1!
1Z
1[
1M#
0N#
1f
#81000
0!
0Z
0[
#81500
1!
1Z
1[
1N#
1h
0z
0g
0f
1i
#82000
0!
0Z
0[
#82500
1!
1Z
1[
0L#
1K#
0M#
0N#
0h
1f
0i
1i
#83000
0!
0Z
0[
#83500
1!
1Z
1[
1N#
1g
0f
#84000
0!
0Z
0[
#84500
1!
1Z
1[
1M#
0N#
1f
#85000
0!
0Z
0[
#85500
1!
1Z
1[
1N#
1z
0g
0f
#86000
0!
0Z
0[
#86500
1!
1Z
1[
1L#
0M#
0N#
1f
#87000
0!
0Z
0[
#87500
1!
1Z
1[
1N#
1g
0f
#88000
0!
0Z
0[
#88500
1!
1Z
1[
1M#
0N#
1f
#89000
0!
0Z
0[
#89500
1!
1Z
1[
1N#
0y
1k
1h
0z
0g
0f
0i
1p
0m
